<svg width="528" height="223" viewBox="0 0 528 223" fill="none" xmlns="http://www.w3.org/2000/svg">
<rect id="Rectangle 4" width="528" height="223" fill="url(#paint0_linear)"/>
<defs>
<linearGradient id="paint0_linear" x1="264" y1="0" x2="264" y2="223" gradientUnits="userSpaceOnUse">
<stop offset="0.0991761" stop-color="white"/>
<stop offset="1" stop-color="#FFFDFD" stop-opacity="0"/>
</linearGradient>
</defs>
</svg>
